c:\users\user\ai-project-2017\magshimimproject2017\runio\runio\debug\vc120.pdb
c:\users\user\ai-project-2017\magshimimproject2017\runio\runio\debug\vc120.idb
c:\users\user\ai-project-2017\magshimimproject2017\runio\runio\debug\main.obj
c:\users\user\ai-project-2017\magshimimproject2017\runio\runio\debug\gamemenu.obj
c:\users\user\ai-project-2017\magshimimproject2017\runio\runio\debug\gamelevel.obj
c:\users\user\ai-project-2017\magshimimproject2017\runio\runio\debug\figure.obj
c:\users\user\ai-project-2017\magshimimproject2017\runio\runio\debug\textbutton.obj
c:\users\user\ai-project-2017\magshimimproject2017\runio\runio\debug\maploader.obj
c:\users\user\desktop\ai-project-2017\magshimimproject2017\runio\runio\debug\vc120.pdb
c:\users\user\desktop\ai-project-2017\magshimimproject2017\runio\runio\debug\vc120.idb
c:\users\user\desktop\ai-project-2017\magshimimproject2017\runio\runio\debug\figure.obj
c:\users\user\desktop\ai-project-2017\magshimimproject2017\runio\runio\debug\gamelevel.obj
c:\users\user\desktop\ai-project-2017\magshimimproject2017\runio\runio\debug\gamemenu.obj
c:\users\user\desktop\ai-project-2017\magshimimproject2017\runio\runio\debug\helper.obj
c:\users\user\desktop\ai-project-2017\magshimimproject2017\runio\runio\debug\main.obj
c:\users\user\desktop\ai-project-2017\magshimimproject2017\runio\runio\debug\maploader.obj
c:\users\user\desktop\ai-project-2017\magshimimproject2017\runio\runio\debug\textbutton.obj
c:\users\user\desktop\ai-project-2017\magshimimproject2017\runio\runio\debug\timerlevel.obj
c:\users\user\ai-project-2017\magshimimproject2017\runio\debug\runio.exe
c:\users\user\ai-project-2017\magshimimproject2017\runio\debug\runio.pdb
c:\users\user\desktop\ai-project-2017\magshimimproject2017\runio\debug\runio.exe
c:\users\user\desktop\ai-project-2017\magshimimproject2017\runio\debug\runio.pdb
c:\users\user\desktop\ai-project-2017\magshimimproject2017\runio\runio\debug\runio.tlog\cl.command.1.tlog
c:\users\user\desktop\ai-project-2017\magshimimproject2017\runio\runio\debug\runio.tlog\cl.read.1.tlog
c:\users\user\desktop\ai-project-2017\magshimimproject2017\runio\runio\debug\runio.tlog\cl.write.1.tlog
c:\users\user\desktop\ai-project-2017\magshimimproject2017\runio\runio\debug\runio.tlog\link.command.1.tlog
c:\users\user\desktop\ai-project-2017\magshimimproject2017\runio\runio\debug\runio.tlog\link.read.1.tlog
c:\users\user\desktop\ai-project-2017\magshimimproject2017\runio\runio\debug\runio.tlog\link.write.1.tlog
